{
    "labels": [
      "Rodney",
      "Hibiscus and Bays",
      "Upper Harbour",
      "Kaipatiki",
      "Devonport",
      "Takapuna",
      "Henderson-Massey",
      "Waitakere Ranges",
      "Great Barrier",
      "Waiheke",
      "Waitemata",
      "Whau",
      "Albert-Eden",
      "Puketapapa",
      "Orakei",
      "Maungakiekie-Tamaki",
      "Howick",
      "Mangere-Otahuhu",
      "Otara-Papatoetoe",
      "Manurewa",
      "Papakura",
      "Franklin"
    ],
    "datasets": [
      {
        "data": [
          14700,
          26500,
          20400,
          33400,
          19100,
          41600,
          16600,
          150,
          2090,
          46000,
          28800,
          40500,
          21800,
          26100,
          28800,
          45800,
          27900,
          31300,
          32000,
          16700,
          19100,1000
        ],
        "label": "2033"
      }
    ]
  }