{
    "labels": [
        "Rodney",
        "Hibiscus and Bays",
        "Upper Harbour",
        "Kaipatiki",
        "Devonport",
        "Takapuna",
        "Henderson-Massey",
        "Waitakere Ranges",
        "Great Barrier",
        "Waiheke",
        "Waitemata",
        "Whau",
        "Albert-Eden",
        "Puketapapa",
        "Orakei",
        "Maungakiekie-Tamaki",
        "Howick",
        "Mangere-Otahuhu",
        "Otara-Papatoetoe",
        "Manurewa",
        "Papakura",
        "Franklin"
    ],
    "datasets": [
        {
            "data": [
                66800,
                109000,
                69100,
                94900,
                63100,
                125000,
                55500,
                980,
                9560,
                114000,
                86800,
                110200,
                63700,
                93100,
                82700,
                153700,
                82900,
                88900,
                96600,
                56200,
                77200
            ],
            "label": "2018"
        }
    ]
}